{
    "bs-dependencies": [
        "reason-future",
        "rescript-indexeddb"
    ],
    "bs-dev-dependencies": [
        "@eleanorofs/rescript-vigil"
    ],
    "name": "rescript-reap",
    "namespace": "Reap",
    "package-specs": {
        "module": "es6-global",
        "in-source": false
    },
    "refmt": 3,
    "sources": [
        {
            "dir": "src",
            "subdirs": true
        },
        {
            "dir": "test",
            "subdirs": true,
            "type": "dev"
        }
    ],
    "suffix": ".bs.js",
    "version": "0.0.14" ,
    "warnings": {
        "error" : "+101"
    }
}
